C:\Users\Rodi\Anaconda2\python.exe "F:/Data Mining/Project/apriori.py"
--------------------FURTHER IMPROVED 5000--------------------
---------------TOP 10 FREQUENT 1-ITEMSET-------------------------
Item ID=4710265849066L Supp=16.52
Item ID=4710515537026L Supp=3.34
Item ID=4713071811159L Supp=3.26
Item ID=4710189820851L Supp=2.88
Item ID=4710036003581L Supp=2.34
Item ID=4714981010038L Supp=2.18
Item ID=4711080010112L Supp=2.16
Item ID=4710054380619L Supp=2.06
Item ID=20332433L Supp=1.98
Item ID=4710011401128L Supp=1.92
-----------------------------------------------------------------
---------------TOP 10 FREQUENT 2-ITEMSET-------------------------
Item ID=['4710265849066L', '4710189820851L'] Supp=45
Item ID=['4710011401128L', '4710011401135L'] Supp=42
Item ID=['4710085120703L', '4710085120710L'] Supp=41
Item ID=['4710189820851L', '4710189851282L'] Supp=39
Item ID=['4710011401128L', '4710011405133L'] Supp=38
Item ID=['4710515537026L', '4713071811159L'] Supp=33
Item ID=['4710265849066L', '4710964103315L'] Supp=26
Item ID=['4710036000832L', '4710036000849L'] Supp=26
Item ID=['4710265849066L', '4710189851282L'] Supp=25
Item ID=['4710011401128L', '4710011409056L'] Supp=25
-----------------------------------------------------------------
---------------TOP 10 FREQUENT 3-ITEMSET-------------------------
Item ID=['4710011401128L', '4710011401135L', '4710011405133L'] Supp=17
Item ID=['4710011401128L', '4710011401135L', '4710011409056L'] Supp=17
Item ID=['4710265849066L', '4710189820851L', '4710189851282L'] Supp=15
Item ID=['4710011401128L', '4710011401135L', '4710011406123L'] Supp=15
Item ID=['4710011401128L', '4710011405133L', '4710011409056L'] Supp=15
Item ID=['4710011401128L', '4710011401135L', '4710011401142L'] Supp=12
Item ID=['4710011401128L', '4710011405133L', '4710011401142L'] Supp=11
Item ID=['4710011401135L', '4710011405133L', '4710011409056L'] Supp=11
Item ID=['4710011401135L', '4710011406123L', '4710011409056L'] Supp=10
-----------------------------------------------------------------
--------------------FURTHER IMPROVED 15000--------------------
---------------TOP 10 FREQUENT 1-ITEMSET-------------------------
Item ID=4710265849066L Supp=2.93
Item ID= 4710265849066L Supp=2.87
Item ID= 4712425010712L Supp=2.39
Item ID= 4719090900065L Supp=1.87
Item ID= 4714981010038L Supp=1.73
Item ID= 4710011401128L Supp=1.66
Item ID= 20332433L Supp=1.47
Item ID= 4710085120628L Supp=1.43
Item ID= 4711080010112L Supp=1.43
Item ID= 4713985863121L Supp=1.38
-----------------------------------------------------------------
---------------TOP 10 FREQUENT 2-ITEMSET-------------------------
Item ID=[' 4710011401128L', ' 4710011401135L'] Supp=104
Item ID=[' 4710011401128L', ' 4710011405133L'] Supp=102
Item ID=[' 4710011405133L', ' 4710011401135L'] Supp=83
Item ID=[' 4710011401128L', ' 4710011409056L'] Supp=76
Item ID=[' 4710011401135L', ' 4710011409056L'] Supp=76
Item ID=[' 4710085120703L', ' 4710085120710L'] Supp=73
Item ID=[' 4710085120628L', ' 4710085172696L'] Supp=71
Item ID=[' 4710011401128L', ' 4710011406123L'] Supp=70
Item ID=[' 4710018004605L', ' 4710018004704L'] Supp=62
Item ID=[' 4710085120628L', ' 4710085120093L'] Supp=61
-----------------------------------------------------------------
---------------TOP 10 FREQUENT 3-ITEMSET-------------------------
Item ID=[' 4710011401128L', ' 4710011405133L', ' 4710011401135L'] Supp=52
Item ID=[' 4710011401128L', ' 4710011401135L', ' 4710011409056L'] Supp=49
Item ID=[' 4710011401128L', ' 4710011405133L', ' 4710011409056L'] Supp=37
Item ID=[' 4710011401128L', ' 4710011401135L', ' 4710011406123L'] Supp=37
Item ID=[' 4710011401128L', ' 4710011405133L', ' 4710011406123L'] Supp=35
Item ID=[' 4710011405133L', ' 4710011401135L', ' 4710011409056L'] Supp=35
Item ID=[' 4710011401135L', ' 4710011406123L', ' 4710011409056L'] Supp=31
Item ID=[' 4710011401128L', ' 4710011401135L', ' 4710011401142L'] Supp=30
Item ID=[' 4710085120093L', ' 4710085120628L', ' 4710085172696L'] Supp=30
Item ID=[' 4710011405133L', ' 4710011401135L', ' 4710011406123L'] Supp=30
-----------------------------------------------------------------
---------------TOP 10 FREQUENT 4-ITEMSET-------------------------
Item ID=[' 4710011401128L', ' 4710011405133L', ' 4710011401135L', ' 4710011409056L'] Supp=24
Item ID=[' 4710011401128L', ' 4710011405133L', ' 4710011401135L', ' 4710011406123L'] Supp=19
Item ID=[' 4710011401128L', ' 4710011405133L', ' 4710011401135L', ' 4710011401142L'] Supp=19
Item ID=[' 4710011401128L', ' 4710011401135L', ' 4710011406123L', ' 4710011409056L'] Supp=17
Item ID=[' 4710011401128L', ' 4710011401135L', ' 4710011409056L', ' 4710011401142L'] Supp=17
Item ID=[' 4710011405133L', ' 4710011401135L', ' 4710011409056L', ' 4710011401142L'] Supp=14
Item ID=[' 4710011401128L', ' 4710011405133L', ' 4710011406123L', ' 4710011409056L'] Supp=13
Item ID=[' 4710030346059L', ' 4710030346103L', ' 4710030346097L', ' 4710030346110L'] Supp=13
Item ID=[' 4710011405133L', ' 4710011401135L', ' 4710011406123L', ' 4710011409056L'] Supp=12
Item ID=[' 4710011401128L', ' 4710011405133L', ' 4710011406123L', ' 4710011401142L'] Supp=11
-----------------------------------------------------------------
---------------TOP 10 FREQUENT 5-ITEMSET-------------------------
Item ID=[' 4710011401128L', ' 4710011405133L', ' 4710011401135L', ' 4710011409056L', ' 4710011401142L'] Supp=10
-----------------------------------------------------------------
--------------------FURTHER IMPROVED 29901--------------------
---------------TOP 10 FREQUENT 1-ITEMSET-------------------------
Item ID= 4719090900065L Supp=3.59
Item ID= 4712425010712L Supp=2.09
Item ID= 4714981010038L Supp=2.04
Item ID=4719090900065L Supp=1.9
Item ID= 4710011401128L Supp=1.81
Item ID= 4712425010255L Supp=1.78
Item ID= 4710018004605L Supp=1.76
Item ID= 4710085120628L Supp=1.69
Item ID= 4710174053691L Supp=1.68
Item ID= 4710265849066L Supp=1.58
-----------------------------------------------------------------
---------------TOP 10 FREQUENT 2-ITEMSET-------------------------
Item ID=[' 4710011401128L', ' 4710011401135L'] Supp=235
Item ID=[' 4710011401128L', ' 4710011405133L'] Supp=227
Item ID=[' 4710018004605L', ' 4710018004704L'] Supp=199
Item ID=[' 4710011401128L', ' 4710011409056L'] Supp=186
Item ID=[' 4710085120628L', ' 4710085172696L'] Supp=186
Item ID=[' 4710085120628L', ' 4710085120093L'] Supp=175
Item ID=[' 4710011401128L', ' 4710011406123L'] Supp=171
Item ID=[' 4710011405133L', ' 4710011401135L'] Supp=171
Item ID=[' 4710011401135L', ' 4710011409056L'] Supp=157
Item ID=[' 4710085172696L', ' 4710085120093L'] Supp=147
-----------------------------------------------------------------
---------------TOP 10 FREQUENT 3-ITEMSET-------------------------
Item ID=[' 4710011401128L', ' 4710011405133L', ' 4710011401135L'] Supp=119
Item ID=[' 4710011401128L', ' 4710011401135L', ' 4710011409056L'] Supp=114
Item ID=[' 4710011401128L', ' 4710011405133L', ' 4710011409056L'] Supp=101
Item ID=[' 4710011401128L', ' 4710011406123L', ' 4710011401135L'] Supp=91
Item ID=[' 4710011405133L', ' 4710011401135L', ' 4710011409056L'] Supp=87
Item ID=[' 4710011401128L', ' 4710011405133L', ' 4710011406123L'] Supp=85
Item ID=[' 4710085120628L', ' 4710085172696L', ' 4710085120093L'] Supp=81
Item ID=[' 4710011401128L', ' 4710011406123L', ' 4710011409056L'] Supp=71
Item ID=[' 4710011401128L', ' 4710011401135L', ' 4710011401142L'] Supp=66
Item ID=[' 4710011405133L', ' 4710011406123L', ' 4710011401135L'] Supp=65
-----------------------------------------------------------------
---------------TOP 10 FREQUENT 4-ITEMSET-------------------------
Item ID=[' 4710011401128L', ' 4710011401135L', ' 4710011409056L', ' 4710011405133L'] Supp=66
Item ID=[' 4710011401128L', ' 4710011406123L', ' 4710011401135L', ' 4710011405133L'] Supp=49
Item ID=[' 4710011401128L', ' 4710011406123L', ' 4710011401135L', ' 4710011409056L'] Supp=45
Item ID=[' 4710011401128L', ' 4710011406123L', ' 4710011409056L', ' 4710011405133L'] Supp=43
Item ID=[' 4710011401128L', ' 4710011401135L', ' 4710011409056L', ' 4710011401142L'] Supp=42
Item ID=[' 4710011401128L', ' 4710011401135L', ' 4710011405133L', ' 4710011401142L'] Supp=39
Item ID=[' 4710011406123L', ' 4710011401135L', ' 4710011409056L', ' 4710011405133L'] Supp=34
Item ID=[' 4710085120628L', ' 4710085172696L', ' 4710085120093L', ' 4710085172702L'] Supp=32
Item ID=[' 4710011401135L', ' 4710011409056L', ' 4710011405133L', ' 4710011401142L'] Supp=31
Item ID=[' 4710011401128L', ' 4710011406123L', ' 4710011401135L', ' 4710011401142L'] Supp=29
-----------------------------------------------------------------
---------------TOP 10 FREQUENT 5-ITEMSET-------------------------
Item ID=[' 4710011401128L', ' 4710011406123L', ' 4710011401135L', ' 4710011409056L', ' 4710011405133L'] Supp=27
Item ID=[' 4710011401128L', ' 4710011401135L', ' 4710011409056L', ' 4710011405133L', ' 4710011401142L'] Supp=25
Item ID=[' 4710011401128L', ' 4710011406123L', ' 4710011401135L', ' 4710011409056L', ' 4710011401142L'] Supp=17
Item ID=[' 4710011401128L', ' 4710011406123L', ' 4710011401135L', ' 4710011405133L', ' 4710011401142L'] Supp=17
Item ID=[' 4710011406123L', ' 4710011401135L', ' 4710011409056L', ' 4710011405133L', ' 4710011401142L'] Supp=13
Item ID=[' 4710011401128L', ' 4710011406123L', ' 4710011409056L', ' 4710011405133L', ' 4710011401142L'] Supp=11
-----------------------------------------------------------------
--------------------FURTHER IMPROVED 60952--------------------
---------------TOP 10 FREQUENT 1-ITEMSET-------------------------
Item ID= 4714981010038L Supp=4.93
Item ID=4714981010038L Supp=2.51
Item ID= 4719090900065L Supp=2.09
Item ID= 4711271000014L Supp=1.74
Item ID= 4710265849066L Supp=1.73
Item ID= 4710114128038L Supp=1.6
Item ID= 4711080010112L Supp=1.49
Item ID= 4710036003581L Supp=1.44
Item ID= 4710088410139L Supp=1.38
Item ID= 4710011401128L Supp=1.26
-----------------------------------------------------------------
---------------TOP 10 FREQUENT 2-ITEMSET-------------------------
Item ID=[' 4710011401128L', ' 4710011401135L'] Supp=326
Item ID=[' 4710011401128L', ' 4710011405133L'] Supp=307
Item ID=[' 4714981010038L', ' 4711271000014L'] Supp=280
Item ID=[' 4710011401128L', ' 4710011406123L'] Supp=257
Item ID=[' 4710011401128L', ' 4710011409056L'] Supp=247
Item ID=[' 4710085120628L', ' 4710085172696L'] Supp=238
Item ID=[' 4710018004605L', ' 4710018004704L'] Supp=229
Item ID=[' 4711856000125L', ' 4711856000088L'] Supp=228
Item ID=[' 4710011405133L', ' 4710011401135L'] Supp=223
Item ID=[' 4710085120628L', ' 4710085120093L'] Supp=213
-----------------------------------------------------------------
---------------TOP 10 FREQUENT 3-ITEMSET-------------------------
Item ID=[' 4710011401128L', ' 4710011405133L', ' 4710011401135L'] Supp=159
Item ID=[' 4710011401128L', ' 4710011401135L', ' 4710011409056L'] Supp=152
Item ID=[' 4710011401128L', ' 4710011406123L', ' 4710011401135L'] Supp=130
Item ID=[' 4710011401128L', ' 4710011405133L', ' 4710011409056L'] Supp=127
Item ID=[' 4710011401128L', ' 4710011406123L', ' 4710011405133L'] Supp=118
Item ID=[' 4710011405133L', ' 4710011401135L', ' 4710011409056L'] Supp=110
Item ID=[' 4710011401128L', ' 4710011406123L', ' 4710011409056L'] Supp=102
Item ID=[' 4710085120628L', ' 4710085172696L', ' 4710085120093L'] Supp=100
Item ID=[' 4710011406123L', ' 4710011405133L', ' 4710011401135L'] Supp=90
Item ID=[' 4710011406123L', ' 4710011401135L', ' 4710011409056L'] Supp=90
-----------------------------------------------------------------
---------------TOP 10 FREQUENT 4-ITEMSET-------------------------
Item ID=[' 4710011401128L', ' 4710011405133L', ' 4710011401135L', ' 4710011409056L'] Supp=86
Item ID=[' 4710011401128L', ' 4710011406123L', ' 4710011401135L', ' 4710011409056L'] Supp=69
Item ID=[' 4710011401128L', ' 4710011406123L', ' 4710011405133L', ' 4710011401135L'] Supp=68
Item ID=[' 4710011401128L', ' 4710011406123L', ' 4710011405133L', ' 4710011409056L'] Supp=59
Item ID=[' 4710011406123L', ' 4710011405133L', ' 4710011401135L', ' 4710011409056L'] Supp=51
Item ID=[' 4711856000125L', ' 4711856020208L', ' 4711856000088L', ' 4711856020215L'] Supp=36
Item ID=[' 4710011401128L', ' 4710011401135L', ' 4710011409056L', ' 4710254049521L'] Supp=13
Item ID=[' 4710011401128L', ' 4710011405133L', ' 4710011401135L', ' 4710174053691L'] Supp=11
Item ID=[' 4710011401128L', ' 4710011405133L', ' 4710011401135L', ' 4714381003128L'] Supp=11
Item ID=[' 4710011401128L', ' 4710011405133L', ' 4710011401135L', ' 4710583110015L'] Supp=11
-----------------------------------------------------------------
---------------TOP 10 FREQUENT 5-ITEMSET-------------------------
Item ID=[' 4710011401128L', ' 4710011405133L', ' 4710011401135L', ' 4710011406123L', ' 4710011409056L'] Supp=42
-----------------------------------------------------------------
--------------------FURTHER IMPROVED 119578--------------------
---------------TOP 10 FREQUENT 1-ITEMSET-------------------------
Item ID= 4714981010038L Supp=4.68
Item ID= 4711271000014L Supp=3.8
Item ID=4714981010038L Supp=2.41
Item ID= 4710114128038L Supp=1.58
Item ID= 4711080010112L Supp=1.55
Item ID= 4719090900065L Supp=1.42
Item ID= 4710088410139L Supp=1.36
Item ID= 4713985863121L Supp=1.33
Item ID=4711271000014L Supp=1.32
Item ID= 4710583996008L Supp=1.24
-----------------------------------------------------------------
---------------TOP 10 FREQUENT 2-ITEMSET-------------------------
Item ID=[' 4710011401128L', ' 4710011401135L'] Supp=574
Item ID=[' 4710011401128L', ' 4710011405133L'] Supp=502
Item ID=[' 4710011401128L', ' 4710011406123L'] Supp=454
Item ID=[' 4714981010038L', ' 4711271000014L'] Supp=452
Item ID=[' 4710011401128L', ' 4710011409056L'] Supp=445
Item ID=[' 4710085120628L', ' 4710085172696L'] Supp=399
Item ID=[' 4710011405133L', ' 4710011401135L'] Supp=366
Item ID=[' 4710085120628L', ' 4710085120093L'] Supp=356
Item ID=[' 4710085172696L', ' 4710085120093L'] Supp=350
Item ID=[' 4710011401135L', ' 4710011409056L'] Supp=350
-----------------------------------------------------------------
---------------TOP 10 FREQUENT 3-ITEMSET-------------------------
Item ID=[' 4710011401128L', ' 4710011401135L', ' 4710011409056L'] Supp=256
Item ID=[' 4710011401128L', ' 4710011405133L', ' 4710011401135L'] Supp=251
Item ID=[' 4710011401128L', ' 4710011406123L', ' 4710011401135L'] Supp=215
Item ID=[' 4710011401128L', ' 4710011405133L', ' 4710011409056L'] Supp=208
Item ID=[' 4710011401128L', ' 4710011406123L', ' 4710011405133L'] Supp=187
Item ID=[' 4710011401128L', ' 4710011406123L', ' 4710011409056L'] Supp=180
Item ID=[' 4710011405133L', ' 4710011401135L', ' 4710011409056L'] Supp=178
Item ID=[' 4710085120628L', ' 4710085172696L', ' 4710085120093L'] Supp=174
Item ID=[' 4710011406123L', ' 4710011401135L', ' 4710011409056L'] Supp=145
Item ID=[' 4710011406123L', ' 4710011405133L', ' 4710011401135L'] Supp=141
-----------------------------------------------------------------
---------------TOP 10 FREQUENT 4-ITEMSET-------------------------
Item ID=[' 4710011401128L', ' 4710011405133L', ' 4710011401135L', ' 4710011409056L'] Supp=135
Item ID=[' 4710011401128L', ' 4710011406123L', ' 4710011401135L', ' 4710011409056L'] Supp=112
Item ID=[' 4710011401128L', ' 4710011406123L', ' 4710011405133L', ' 4710011401135L'] Supp=107
Item ID=[' 4710011401128L', ' 4710011406123L', ' 4710011405133L', ' 4710011409056L'] Supp=96
Item ID=[' 4710011406123L', ' 4710011405133L', ' 4710011401135L', ' 4710011409056L'] Supp=82
Item ID=[' 37000440147L', ' 37000445111L', ' 37000337270L', ' 37000441809L'] Supp=22
Item ID=[' 4710011401128L', ' 4710583110015L', ' 4710011405133L', ' 4710011401135L'] Supp=19
Item ID=[' 37000440147L', ' 37000442127L', ' 37000445111L', ' 37000337270L'] Supp=19
Item ID=[' 37000442127L', ' 37000445111L', ' 37000337270L', ' 37000441809L'] Supp=18
Item ID=[' 4710011401128L', ' 4710011405133L', ' 4710011401135L', ' 4714381003128L'] Supp=17
-----------------------------------------------------------------
---------------TOP 10 FREQUENT 5-ITEMSET-------------------------
Item ID=[' 4710011401128L', ' 4710011406123L', ' 4710011405133L', ' 4710011401135L', ' 4710011409056L'] Supp=66
Item ID=[' 4710011401128L', ' 4710011405133L', ' 4710011401135L', ' 4710011409056L', ' 4710583110015L'] Supp=11
Item ID=[' 4710011401128L', ' 4710011406123L', ' 4710011405133L', ' 4710011401135L', ' 4710583110015L'] Supp=10
Item ID=[' 4710011401128L', ' 4710011406123L', ' 4710011405133L', ' 4710011401135L', ' 4714381003128L'] Supp=10
Item ID=[' 4710011401128L', ' 4710011405133L', ' 4710011401135L', ' 4710011409056L', ' 4710254049521L'] Supp=10
Item ID=[' 4710011401128L', ' 4710011405133L', ' 4710011401135L', ' 4710011409056L', ' 4711258001256L'] Supp=10
-----------------------------------------------------------------
---------------FURTHER IMPROVED APRIORI-------------------------
5000 transactions takes 4.783000
15000 transactions takes 31.700000
29901 transactions takes 179.862000
60952 transactions takes 539.262000
119578 transactions takes 1137.157000
-----------------------------------------------------------------

Process finished with exit code 0
