"C:\Program Files (x86)\Anaconda2\python.exe" "C:/Users/Rodi/Documents/Data Mining/Project/apriori.py"
--------------------CLASSIC NALINAKSH 5000--------------------
---------------TOP 10 FREQUENT 1-ITEMSET-------------------------
Item ID=4710265849066L Supp=16.52
Item ID=4710515537026L Supp=3.34
Item ID=4713071811159L Supp=3.26
Item ID=4710189820851L Supp=2.88
Item ID=4710036003581L Supp=2.34
Item ID=4714981010038L Supp=2.18
Item ID=4711080010112L Supp=2.16
Item ID=4710054380619L Supp=2.06
Item ID=20332433L Supp=1.98
Item ID=4710011401128L Supp=1.92
-----------------------------------------------------------------
-------TOP 10 (or less) FREQUENT 2-ITEMSET------------------------
set= { 4710189820851L, 4710265849066L },  sup= 45
set= { 4710011401128L, 4710011401135L },  sup= 42
set= { 4710085120703L, 4710085120710L },  sup= 41
set= { 4710189820851L, 4710189851282L },  sup= 39
set= { 4710011401128L, 4710011405133L },  sup= 38
set= { 4710515537026L, 4713071811159L },  sup= 33
set= { 4710265849066L, 4710964103315L },  sup= 26
set= { 4710036000832L, 4710036000849L },  sup= 26
set= { 4710011401128L, 4710011409056L },  sup= 25
set= { 4710189851282L, 4710265849066L },  sup= 25
------------------------------------------------------------------
-------TOP 10 (or less) FREQUENT 3-ITEMSET------------------------
set= { 4710011401128L, 4710011401135L, 4710011405133L },  sup= 17
set= { 4710011401128L, 4710011401135L, 4710011409056L },  sup= 17
set= { 4710189820851L, 4710189851282L, 4710265849066L },  sup= 15
set= { 4710011401128L, 4710011401135L, 4710011406123L },  sup= 15
set= { 4710011401128L, 4710011405133L, 4710011409056L },  sup= 15
set= { 4710011401128L, 4710011401135L, 4710011401142L },  sup= 12
set= { 4710011401128L, 4710011401142L, 4710011405133L },  sup= 11
set= { 4710011401135L, 4710011405133L, 4710011409056L },  sup= 11
set= { 4710011401135L, 4710011406123L, 4710011409056L },  sup= 10
------------------------------------------------------------------
--------------------CLASSIC NALINAKSH 15000--------------------
---------------TOP 10 FREQUENT 1-ITEMSET-------------------------
Item ID=4710265849066L Supp=5.8
Item ID=4712425010712L Supp=3.51
Item ID=4719090900065L Supp=2.62
Item ID=4714981010038L Supp=2.05
Item ID=4710011401128L Supp=1.93
Item ID=20332433L Supp=1.87
Item ID=4710054380619L Supp=1.76
Item ID=4713985863121L Supp=1.75
Item ID=4711080010112L Supp=1.75
Item ID=4710085120628L Supp=1.63
-----------------------------------------------------------------
-------TOP 10 (or less) FREQUENT 2-ITEMSET------------------------
set= { 4710011401128L, 4710011401135L },  sup= 140
set= { 4710011401128L, 4710011405133L },  sup= 122
set= { 4710011401128L, 4710011409056L },  sup= 104
set= { 4710011401128L, 4710011406123L },  sup= 96
set= { 4710011401135L, 4710011405133L },  sup= 96
set= { 4710011401135L, 4710011409056L },  sup= 94
set= { 4710085120703L, 4710085120710L },  sup= 89
set= { 4710030346059L, 4710030346103L },  sup= 89
set= { 4710085120628L, 4710085172696L },  sup= 86
set= { 4710011405133L, 4710011406123L },  sup= 79
------------------------------------------------------------------
-------TOP 10 (or less) FREQUENT 3-ITEMSET------------------------
set= { 4710011401128L, 4710011401135L, 4710011409056L },  sup= 72
set= { 4710011401128L, 4710011401135L, 4710011405133L },  sup= 71
set= { 4710011401128L, 4710011401135L, 4710011406123L },  sup= 57
set= { 4710011401128L, 4710011405133L, 4710011409056L },  sup= 54
set= { 4710011401128L, 4710011405133L, 4710011406123L },  sup= 51
set= { 4710011401135L, 4710011405133L, 4710011409056L },  sup= 51
set= { 4710011401135L, 4710011406123L, 4710011409056L },  sup= 46
set= { 4710030346059L, 4710030346103L, 4710030346110L },  sup= 46
set= { 4710011401128L, 4710011406123L, 4710011409056L },  sup= 45
set= { 4710030346059L, 4710030346097L, 4710030346103L },  sup= 44
------------------------------------------------------------------
-------TOP 10 (or less) FREQUENT 4-ITEMSET------------------------
set= { 4710011401128L, 4710011401135L, 4710011405133L, 4710011409056L },  sup= 41
set= { 4710011401128L, 4710011401135L, 4710011406123L, 4710011409056L },  sup= 34
set= { 4710030346059L, 4710030346097L, 4710030346103L, 4710030346110L },  sup= 33
set= { 4710011401128L, 4710011401135L, 4710011405133L, 4710011406123L },  sup= 31
set= { 4710011401128L, 4710011401135L, 4710011401142L, 4710011405133L },  sup= 30
set= { 4710011401128L, 4710011401135L, 4710011401142L, 4710011409056L },  sup= 30
set= { 4710011401135L, 4710011405133L, 4710011406123L, 4710011409056L },  sup= 25
set= { 4710011401128L, 4710011405133L, 4710011406123L, 4710011409056L },  sup= 24
set= { 4710011401128L, 4710011401142L, 4710011405133L, 4710011409056L },  sup= 23
set= { 4710011401135L, 4710011401142L, 4710011405133L, 4710011409056L },  sup= 23
------------------------------------------------------------------
--------------------CLASSIC NALINAKSH 29901--------------------
---------------TOP 10 FREQUENT 1-ITEMSET-------------------------
Item ID=4719090900065L Supp=5.49
Item ID=4710265849066L Supp=3.07
Item ID=4712425010712L Supp=2.83
Item ID=4714981010038L Supp=2.41
Item ID=4712425010255L Supp=2.07
Item ID=4710011401128L Supp=2.06
Item ID=4710018004605L Supp=2.03
Item ID=4710085120628L Supp=1.97
Item ID=4711080010112L Supp=1.9
Item ID=4710174053691L Supp=1.9
-----------------------------------------------------------------
-------TOP 10 (or less) FREQUENT 2-ITEMSET------------------------
set= { 4710011401128L, 4710011401135L },  sup= 286
set= { 4710011401128L, 4710011405133L },  sup= 278
set= { 4710018004605L, 4710018004704L },  sup= 248
set= { 4710011401128L, 4710011406123L },  sup= 236
set= { 4710085120093L, 4710085120628L },  sup= 232
set= { 4710085120628L, 4710085172696L },  sup= 231
set= { 4710011401128L, 4710011409056L },  sup= 226
set= { 4710011401135L, 4710011405133L },  sup= 197
set= { 4710085120093L, 4710085172696L },  sup= 185
set= { 4710011401135L, 4710011409056L },  sup= 180
------------------------------------------------------------------
-------TOP 10 (or less) FREQUENT 3-ITEMSET------------------------
set= { 4710011401128L, 4710011401135L, 4710011405133L },  sup= 154
set= { 4710011401128L, 4710011401135L, 4710011409056L },  sup= 145
set= { 4710011401128L, 4710011405133L, 4710011409056L },  sup= 133
set= { 4710011401128L, 4710011401135L, 4710011406123L },  sup= 125
set= { 4710011401128L, 4710011405133L, 4710011406123L },  sup= 121
set= { 4710085120093L, 4710085120628L, 4710085172696L },  sup= 118
set= { 4710011401135L, 4710011405133L, 4710011409056L },  sup= 110
set= { 4710011401128L, 4710011406123L, 4710011409056L },  sup= 104
set= { 4710011401135L, 4710011406123L, 4710011409056L },  sup= 88
set= { 4710011401135L, 4710011405133L, 4710011406123L },  sup= 86
------------------------------------------------------------------
-------TOP 10 (or less) FREQUENT 4-ITEMSET------------------------
set= { 4710011401128L, 4710011401135L, 4710011405133L, 4710011409056L },  sup= 93
set= { 4710011401128L, 4710011401135L, 4710011405133L, 4710011406123L },  sup= 70
set= { 4710011401128L, 4710011401135L, 4710011406123L, 4710011409056L },  sup= 69
set= { 4710011401128L, 4710011405133L, 4710011406123L, 4710011409056L },  sup= 64
set= { 4710011401128L, 4710011401135L, 4710011401142L, 4710011409056L },  sup= 58
set= { 4710011401135L, 4710011405133L, 4710011406123L, 4710011409056L },  sup= 54
set= { 4710011401128L, 4710011401135L, 4710011401142L, 4710011405133L },  sup= 53
set= { 4710011401128L, 4710011401142L, 4710011405133L, 4710011409056L },  sup= 46
set= { 4710085120093L, 4710085120628L, 4710085172696L, 4710085172702L },  sup= 45
set= { 4710011401128L, 4710011401135L, 4710011401142L, 4710011406123L },  sup= 44
------------------------------------------------------------------
-------TOP 10 (or less) FREQUENT 5-ITEMSET------------------------
set= { 4710011401128L, 4710011401135L, 4710011405133L, 4710011406123L, 4710011409056L },  sup= 45
set= { 4710011401128L, 4710011401135L, 4710011401142L, 4710011405133L, 4710011409056L },  sup= 39
set= { 4710011401128L, 4710011401135L, 4710011401142L, 4710011406123L, 4710011409056L },  sup= 31
------------------------------------------------------------------
--------------------CLASSIC NALINAKSH 60952--------------------
---------------TOP 10 FREQUENT 1-ITEMSET-------------------------
Item ID=4714981010038L Supp=7.44
Item ID=4719090900065L Supp=3.1
Item ID=4710265849066L Supp=2.91
Item ID=4711271000014L Supp=1.99
Item ID=4710036003581L Supp=1.86
Item ID=4710114128038L Supp=1.86
Item ID=4711080010112L Supp=1.81
Item ID=4712425010712L Supp=1.67
Item ID=4710088410139L Supp=1.62
Item ID=4713985863121L Supp=1.51
-----------------------------------------------------------------
-------TOP 10 (or less) FREQUENT 2-ITEMSET------------------------
set= { 4710011401128L, 4710011401135L },  sup= 390
set= { 4711271000014L, 4714981010038L },  sup= 385
set= { 4710011401128L, 4710011405133L },  sup= 375
set= { 4710011401128L, 4710011406123L },  sup= 343
set= { 4710011401128L, 4710011409056L },  sup= 300
set= { 4711856000088L, 4711856000125L },  sup= 296
set= { 4710085120628L, 4710085172696L },  sup= 289
set= { 4710018004605L, 4710018004704L },  sup= 285
set= { 4710036003581L, 4714981010038L },  sup= 279
set= { 4710085120093L, 4710085120628L },  sup= 279
------------------------------------------------------------------
-------TOP 10 (or less) FREQUENT 3-ITEMSET------------------------
set= { 4710011401128L, 4710011401135L, 4710011405133L },  sup= 204
set= { 4710011401128L, 4710011401135L, 4710011409056L },  sup= 191
set= { 4710011401128L, 4710011401135L, 4710011406123L },  sup= 174
set= { 4710011401128L, 4710011405133L, 4710011406123L },  sup= 171
set= { 4710011401128L, 4710011405133L, 4710011409056L },  sup= 165
set= { 4710011401128L, 4710011406123L, 4710011409056L },  sup= 144
set= { 4710085120093L, 4710085120628L, 4710085172696L },  sup= 141
set= { 4710011401135L, 4710011405133L, 4710011409056L },  sup= 138
set= { 4710011401135L, 4710011405133L, 4710011406123L },  sup= 121
set= { 4710011401135L, 4710011406123L, 4710011409056L },  sup= 119
------------------------------------------------------------------
-------TOP 10 (or less) FREQUENT 4-ITEMSET------------------------
set= { 4710011401128L, 4710011401135L, 4710011405133L, 4710011409056L },  sup= 118
set= { 4710011401128L, 4710011401135L, 4710011405133L, 4710011406123L },  sup= 101
set= { 4710011401128L, 4710011401135L, 4710011406123L, 4710011409056L },  sup= 98
set= { 4710011401128L, 4710011405133L, 4710011406123L, 4710011409056L },  sup= 88
set= { 4710011401135L, 4710011405133L, 4710011406123L, 4710011409056L },  sup= 77
set= { 4711856000088L, 4711856000125L, 4711856020208L, 4711856020215L },  sup= 55
set= { 37000329206L, 37000337270L, 37000442127L, 37000445111L },  sup= 20
------------------------------------------------------------------
-------TOP 10 (or less) FREQUENT 5-ITEMSET------------------------
set= { 4710011401128L, 4710011401135L, 4710011405133L, 4710011406123L, 4710011409056L },  sup= 67
------------------------------------------------------------------
--------------------CLASSIC NALINAKSH 119578--------------------
--------------------CLASSIC RODI 5000--------------------
---------------TOP 10 FREQUENT 1-ITEMSET-------------------------
Item ID=4710265849066L Supp=16.52
Item ID=4710515537026L Supp=3.34
Item ID=4713071811159L Supp=3.26
Item ID=4710189820851L Supp=2.88
Item ID=4710036003581L Supp=2.34
Item ID=4714981010038L Supp=2.18
Item ID=4711080010112L Supp=2.16
Item ID=4710054380619L Supp=2.06
Item ID=20332433L Supp=1.98
Item ID=4710011401128L Supp=1.92
-----------------------------------------------------------------
---------------TOP 10 FREQUENT 2-ITEMSET-------------------------
Item ID=('4710265849066L', '4710189820851L') Supp=45
Item ID=('4710011401128L', '4710011401135L') Supp=42
Item ID=('4710085120703L', '4710085120710L') Supp=41
Item ID=('4710189820851L', '4710189851282L') Supp=39
Item ID=('4710011401128L', '4710011405133L') Supp=38
Item ID=('4710515537026L', '4713071811159L') Supp=33
Item ID=('4710265849066L', '4710964103315L') Supp=26
Item ID=('4710036000832L', '4710036000849L') Supp=26
Item ID=('4710265849066L', '4710189851282L') Supp=25
Item ID=('4710011401128L', '4710011409056L') Supp=25
-----------------------------------------------------------------
---------------TOP 10 FREQUENT 3-ITEMSET-------------------------
Item ID=('4710011401128L', '4710011401135L', '4710011405133L') Supp=17
Item ID=('4710011401128L', '4710011401135L', '4710011409056L') Supp=17
Item ID=('4710265849066L', '4710189820851L', '4710189851282L') Supp=15
Item ID=('4710011401128L', '4710011401135L', '4710011406123L') Supp=15
Item ID=('4710011401128L', '4710011405133L', '4710011409056L') Supp=15
Item ID=('4710011401128L', '4710011401135L', '4710011401142L') Supp=12
Item ID=('4710011401128L', '4710011405133L', '4710011401142L') Supp=11
Item ID=('4710011401135L', '4710011405133L', '4710011409056L') Supp=11
Item ID=('4710011401135L', '4710011406123L', '4710011409056L') Supp=10
-----------------------------------------------------------------
--------------------CLASSIC RODI 15000--------------------
---------------TOP 10 FREQUENT 1-ITEMSET-------------------------
Item ID=4710265849066L Supp=5.8
Item ID=4712425010712L Supp=3.51
Item ID=4719090900065L Supp=2.62
Item ID=4714981010038L Supp=2.05
Item ID=4710011401128L Supp=1.93
Item ID=20332433L Supp=1.87
Item ID=4710054380619L Supp=1.76
Item ID=4713985863121L Supp=1.75
Item ID=4711080010112L Supp=1.75
Item ID=4710085120628L Supp=1.63
-----------------------------------------------------------------
---------------TOP 10 FREQUENT 2-ITEMSET-------------------------
Item ID=('4710011401128L', '4710011401135L') Supp=140
Item ID=('4710011401128L', '4710011405133L') Supp=122
Item ID=('4710011401128L', '4710011409056L') Supp=104
Item ID=('4710011401128L', '4710011406123L') Supp=96
Item ID=('4710011401135L', '4710011405133L') Supp=96
Item ID=('4710011401135L', '4710011409056L') Supp=94
Item ID=('4710085120703L', '4710085120710L') Supp=89
Item ID=('4710030346059L', '4710030346103L') Supp=89
Item ID=('4710085120628L', '4710085172696L') Supp=86
Item ID=('4710011405133L', '4710011406123L') Supp=79
-----------------------------------------------------------------
---------------TOP 10 FREQUENT 3-ITEMSET-------------------------
Item ID=('4710011401128L', '4710011401135L', '4710011409056L') Supp=72
Item ID=('4710011401128L', '4710011401135L', '4710011405133L') Supp=71
Item ID=('4710011401128L', '4710011401135L', '4710011406123L') Supp=57
Item ID=('4710011401128L', '4710011405133L', '4710011409056L') Supp=54
Item ID=('4710011401128L', '4710011405133L', '4710011406123L') Supp=51
Item ID=('4710011401135L', '4710011405133L', '4710011409056L') Supp=51
Item ID=('4710011401135L', '4710011406123L', '4710011409056L') Supp=46
Item ID=('4710030346059L', '4710030346103L', '4710030346110L') Supp=46
Item ID=('4710011401128L', '4710011406123L', '4710011409056L') Supp=45
Item ID=('4710030346059L', '4710030346103L', '4710030346097L') Supp=44
-----------------------------------------------------------------
---------------TOP 10 FREQUENT 4-ITEMSET-------------------------
Item ID=('4710011401128L', '4710011401135L', '4710011405133L', '4710011409056L') Supp=41
Item ID=('4710011401128L', '4710011401135L', '4710011406123L', '4710011409056L') Supp=34
Item ID=('4710030346059L', '4710030346103L', '4710030346097L', '4710030346110L') Supp=33
Item ID=('4710011401128L', '4710011401135L', '4710011405133L', '4710011406123L') Supp=31
Item ID=('4710011401128L', '4710011401135L', '4710011405133L', '4710011401142L') Supp=30
Item ID=('4710011401128L', '4710011401135L', '4710011409056L', '4710011401142L') Supp=30
Item ID=('4710011401135L', '4710011405133L', '4710011406123L', '4710011409056L') Supp=25
Item ID=('4710011401128L', '4710011405133L', '4710011406123L', '4710011409056L') Supp=24
Item ID=('4710011401128L', '4710011405133L', '4710011409056L', '4710011401142L') Supp=23
Item ID=('4710011401135L', '4710011405133L', '4710011409056L', '4710011401142L') Supp=23
-----------------------------------------------------------------
--------------------CLASSIC RODI 29901--------------------
--------------------CLASSIC RODI 60952--------------------
--------------------CLASSIC RODI 119578--------------------
--------------------IMPROVED 5000--------------------
---------------TOP 10 FREQUENT 1-ITEMSET-------------------------
Item ID=4710265849066L Supp=16.52
Item ID=4710515537026L Supp=3.34
Item ID=4713071811159L Supp=3.26
Item ID=4710189820851L Supp=2.88
Item ID=4710036003581L Supp=2.34
Item ID=4714981010038L Supp=2.18
Item ID=4711080010112L Supp=2.16
Item ID=4710054380619L Supp=2.06
Item ID=20332433L Supp=1.98
Item ID=4710011401128L Supp=1.92
-----------------------------------------------------------------
---------------TOP 10 FREQUENT 2-ITEMSET-------------------------
Item ID=['4710265849066L', '4710189820851L'] Supp=45
Item ID=['4710011401128L', '4710011401135L'] Supp=42
Item ID=['4710085120703L', '4710085120710L'] Supp=41
Item ID=['4710189820851L', '4710189851282L'] Supp=39
Item ID=['4710011401128L', '4710011405133L'] Supp=38
Item ID=['4710515537026L', '4713071811159L'] Supp=33
Item ID=['4710265849066L', '4710964103315L'] Supp=26
Item ID=['4710036000832L', '4710036000849L'] Supp=26
Item ID=['4710265849066L', '4710189851282L'] Supp=25
Item ID=['4710011401128L', '4710011409056L'] Supp=25
-----------------------------------------------------------------
---------------TOP 10 FREQUENT 3-ITEMSET-------------------------
Item ID=['4710011401128L', '4710011401135L', '4710011405133L'] Supp=17
Item ID=['4710011401128L', '4710011401135L', '4710011409056L'] Supp=17
Item ID=['4710265849066L', '4710189820851L', '4710189851282L'] Supp=15
Item ID=['4710011401128L', '4710011401135L', '4710011406123L'] Supp=15
Item ID=['4710011401128L', '4710011405133L', '4710011409056L'] Supp=15
Item ID=['4710011401128L', '4710011401135L', '4710011401142L'] Supp=12
Item ID=['4710011401128L', '4710011405133L', '4710011401142L'] Supp=11
Item ID=['4710011401135L', '4710011405133L', '4710011409056L'] Supp=11
Item ID=['4710011401135L', '4710011406123L', '4710011409056L'] Supp=10
-----------------------------------------------------------------
--------------------IMPROVED 15000--------------------
---------------TOP 10 FREQUENT 1-ITEMSET-------------------------
Item ID=4710265849066L Supp=5.8
Item ID=4712425010712L Supp=3.51
Item ID=4719090900065L Supp=2.62
Item ID=4714981010038L Supp=2.05
Item ID=4710011401128L Supp=1.93
Item ID=20332433L Supp=1.87
Item ID=4710054380619L Supp=1.76
Item ID=4713985863121L Supp=1.75
Item ID=4711080010112L Supp=1.75
Item ID=4710085120628L Supp=1.63
-----------------------------------------------------------------
---------------TOP 10 FREQUENT 2-ITEMSET-------------------------
Item ID=['4710011401128L', '4710011401135L'] Supp=140
Item ID=['4710011401128L', '4710011405133L'] Supp=122
Item ID=['4710011401128L', '4710011409056L'] Supp=104
Item ID=['4710011401128L', '4710011406123L'] Supp=96
Item ID=['4710011401135L', '4710011405133L'] Supp=96
Item ID=['4710011401135L', '4710011409056L'] Supp=94
Item ID=['4710085120703L', '4710085120710L'] Supp=89
Item ID=['4710030346059L', '4710030346103L'] Supp=89
Item ID=['4710085120628L', '4710085172696L'] Supp=86
Item ID=['4710011405133L', '4710011406123L'] Supp=79
-----------------------------------------------------------------
---------------TOP 10 FREQUENT 3-ITEMSET-------------------------
Item ID=['4710011401128L', '4710011401135L', '4710011409056L'] Supp=72
Item ID=['4710011401128L', '4710011401135L', '4710011405133L'] Supp=71
Item ID=['4710011401128L', '4710011401135L', '4710011406123L'] Supp=57
Item ID=['4710011401128L', '4710011405133L', '4710011409056L'] Supp=54
Item ID=['4710011401128L', '4710011405133L', '4710011406123L'] Supp=51
Item ID=['4710011401135L', '4710011405133L', '4710011409056L'] Supp=51
Item ID=['4710011401135L', '4710011406123L', '4710011409056L'] Supp=46
Item ID=['4710030346059L', '4710030346103L', '4710030346110L'] Supp=46
Item ID=['4710011401128L', '4710011406123L', '4710011409056L'] Supp=45
Item ID=['4710030346059L', '4710030346103L', '4710030346097L'] Supp=44
-----------------------------------------------------------------
---------------TOP 10 FREQUENT 4-ITEMSET-------------------------
Item ID=['4710011401128L', '4710011401135L', '4710011405133L', '4710011409056L'] Supp=41
Item ID=['4710011401128L', '4710011401135L', '4710011406123L', '4710011409056L'] Supp=34
Item ID=['4710030346059L', '4710030346103L', '4710030346097L', '4710030346110L'] Supp=33
Item ID=['4710011401128L', '4710011401135L', '4710011405133L', '4710011406123L'] Supp=31
Item ID=['4710011401128L', '4710011401135L', '4710011405133L', '4710011401142L'] Supp=30
Item ID=['4710011401128L', '4710011401135L', '4710011409056L', '4710011401142L'] Supp=30
Item ID=['4710011401135L', '4710011405133L', '4710011406123L', '4710011409056L'] Supp=25
Item ID=['4710011401128L', '4710011405133L', '4710011406123L', '4710011409056L'] Supp=24
Item ID=['4710011401128L', '4710011405133L', '4710011409056L', '4710011401142L'] Supp=23
Item ID=['4710011401135L', '4710011405133L', '4710011409056L', '4710011401142L'] Supp=23
-----------------------------------------------------------------
--------------------IMPROVED 29901--------------------
---------------TOP 10 FREQUENT 1-ITEMSET-------------------------
Item ID=4719090900065L Supp=5.49
Item ID=4710265849066L Supp=3.07
Item ID=4712425010712L Supp=2.83
Item ID=4714981010038L Supp=2.41
Item ID=4712425010255L Supp=2.07
Item ID=4710011401128L Supp=2.06
Item ID=4710018004605L Supp=2.03
Item ID=4710085120628L Supp=1.97
Item ID=4711080010112L Supp=1.9
Item ID=4710174053691L Supp=1.9
-----------------------------------------------------------------
---------------TOP 10 FREQUENT 2-ITEMSET-------------------------
Item ID=['4710011401128L', '4710011401135L'] Supp=286
Item ID=['4710011401128L', '4710011405133L'] Supp=278
Item ID=['4710018004605L', '4710018004704L'] Supp=248
Item ID=['4710011401128L', '4710011406123L'] Supp=236
Item ID=['4710085120628L', '4710085120093L'] Supp=232
Item ID=['4710085120628L', '4710085172696L'] Supp=231
Item ID=['4710011401128L', '4710011409056L'] Supp=226
Item ID=['4710011405133L', '4710011401135L'] Supp=197
Item ID=['4710085172696L', '4710085120093L'] Supp=185
Item ID=['4710011401135L', '4710011409056L'] Supp=180
-----------------------------------------------------------------
---------------TOP 10 FREQUENT 3-ITEMSET-------------------------
Item ID=['4710011401128L', '4710011405133L', '4710011401135L'] Supp=154
Item ID=['4710011401128L', '4710011401135L', '4710011409056L'] Supp=145
Item ID=['4710011401128L', '4710011405133L', '4710011409056L'] Supp=133
Item ID=['4710011401128L', '4710011406123L', '4710011401135L'] Supp=125
Item ID=['4710011401128L', '4710011405133L', '4710011406123L'] Supp=121
Item ID=['4710085120628L', '4710085172696L', '4710085120093L'] Supp=118
Item ID=['4710011405133L', '4710011401135L', '4710011409056L'] Supp=110
Item ID=['4710011401128L', '4710011406123L', '4710011409056L'] Supp=104
Item ID=['4710011406123L', '4710011401135L', '4710011409056L'] Supp=88
Item ID=['4710011405133L', '4710011406123L', '4710011401135L'] Supp=86
-----------------------------------------------------------------
---------------TOP 10 FREQUENT 4-ITEMSET-------------------------
Item ID=['4710011401128L', '4710011401135L', '4710011409056L', '4710011405133L'] Supp=93
Item ID=['4710011401128L', '4710011406123L', '4710011401135L', '4710011405133L'] Supp=70
Item ID=['4710011401128L', '4710011406123L', '4710011401135L', '4710011409056L'] Supp=69
Item ID=['4710011401128L', '4710011406123L', '4710011409056L', '4710011405133L'] Supp=64
Item ID=['4710011401128L', '4710011401135L', '4710011409056L', '4710011401142L'] Supp=58
Item ID=['4710011406123L', '4710011401135L', '4710011409056L', '4710011405133L'] Supp=54
Item ID=['4710011401128L', '4710011401135L', '4710011405133L', '4710011401142L'] Supp=53
Item ID=['4710011401128L', '4710011409056L', '4710011405133L', '4710011401142L'] Supp=46
Item ID=['4710085120628L', '4710085172696L', '4710085120093L', '4710085172702L'] Supp=45
Item ID=['4710011401128L', '4710011406123L', '4710011401135L', '4710011401142L'] Supp=44
-----------------------------------------------------------------
---------------TOP 10 FREQUENT 5-ITEMSET-------------------------
Item ID=['4710011401128L', '4710011406123L', '4710011401135L', '4710011409056L', '4710011405133L'] Supp=45
Item ID=['4710011401128L', '4710011401135L', '4710011409056L', '4710011405133L', '4710011401142L'] Supp=39
Item ID=['4710011401128L', '4710011406123L', '4710011401135L', '4710011409056L', '4710011401142L'] Supp=31
-----------------------------------------------------------------
--------------------IMPROVED 60952--------------------
---------------TOP 10 FREQUENT 1-ITEMSET-------------------------
Item ID=4714981010038L Supp=7.44
Item ID=4719090900065L Supp=3.1
Item ID=4710265849066L Supp=2.91
Item ID=4711271000014L Supp=1.99
Item ID=4710036003581L Supp=1.86
Item ID=4710114128038L Supp=1.86
Item ID=4711080010112L Supp=1.81
Item ID=4712425010712L Supp=1.67
Item ID=4710088410139L Supp=1.62
Item ID=4713985863121L Supp=1.51
-----------------------------------------------------------------
---------------TOP 10 FREQUENT 2-ITEMSET-------------------------
Item ID=['4710011401128L', '4710011401135L'] Supp=390
Item ID=['4714981010038L', '4711271000014L'] Supp=385
Item ID=['4710011401128L', '4710011405133L'] Supp=375
Item ID=['4710011401128L', '4710011406123L'] Supp=343
Item ID=['4710011401128L', '4710011409056L'] Supp=300
Item ID=['4711856000125L', '4711856000088L'] Supp=296
Item ID=['4710085120628L', '4710085172696L'] Supp=289
Item ID=['4710018004605L', '4710018004704L'] Supp=285
Item ID=['4714981010038L', '4710036003581L'] Supp=279
Item ID=['4710085120628L', '4710085120093L'] Supp=279
-----------------------------------------------------------------
---------------TOP 10 FREQUENT 3-ITEMSET-------------------------
Item ID=['4710011401128L', '4710011405133L', '4710011401135L'] Supp=204
Item ID=['4710011401128L', '4710011401135L', '4710011409056L'] Supp=191
Item ID=['4710011401128L', '4710011406123L', '4710011401135L'] Supp=174
Item ID=['4710011401128L', '4710011406123L', '4710011405133L'] Supp=171
Item ID=['4710011401128L', '4710011405133L', '4710011409056L'] Supp=165
Item ID=['4710011401128L', '4710011406123L', '4710011409056L'] Supp=144
Item ID=['4710085120628L', '4710085172696L', '4710085120093L'] Supp=141
Item ID=['4710011405133L', '4710011401135L', '4710011409056L'] Supp=138
Item ID=['4710011406123L', '4710011405133L', '4710011401135L'] Supp=121
Item ID=['4710011406123L', '4710011401135L', '4710011409056L'] Supp=119
-----------------------------------------------------------------
---------------TOP 10 FREQUENT 4-ITEMSET-------------------------
Item ID=['4710011401128L', '4710011405133L', '4710011401135L', '4710011409056L'] Supp=118
Item ID=['4710011401128L', '4710011406123L', '4710011405133L', '4710011401135L'] Supp=101
Item ID=['4710011401128L', '4710011406123L', '4710011401135L', '4710011409056L'] Supp=98
Item ID=['4710011401128L', '4710011406123L', '4710011405133L', '4710011409056L'] Supp=88
Item ID=['4710011406123L', '4710011405133L', '4710011401135L', '4710011409056L'] Supp=77
Item ID=['4711856000125L', '4711856020208L', '4711856000088L', '4711856020215L'] Supp=55
Item ID=['37000329206L', '37000445111L', '37000442127L', '37000337270L'] Supp=20
-----------------------------------------------------------------
---------------TOP 10 FREQUENT 5-ITEMSET-------------------------
Item ID=['4710011401128L', '4710011406123L', '4710011405133L', '4710011401135L', '4710011409056L'] Supp=67
-----------------------------------------------------------------
--------------------IMPROVED 119578--------------------
--------------------FURTHER IMPROVED 5000--------------------
---------------TOP 10 FREQUENT 1-ITEMSET-------------------------
Item ID=4710265849066L Supp=16.52
Item ID=4710515537026L Supp=3.34
Item ID=4713071811159L Supp=3.26
Item ID=4710189820851L Supp=2.88
Item ID=4710036003581L Supp=2.34
Item ID=4714981010038L Supp=2.18
Item ID=4711080010112L Supp=2.16
Item ID=4710054380619L Supp=2.06
Item ID=20332433L Supp=1.98
Item ID=4710011401128L Supp=1.92
-----------------------------------------------------------------
---------------TOP 10 FREQUENT 2-ITEMSET-------------------------
Item ID=['4710265849066L', '4710189820851L'] Supp=45
Item ID=['4710011401128L', '4710011401135L'] Supp=42
Item ID=['4710085120703L', '4710085120710L'] Supp=41
Item ID=['4710189820851L', '4710189851282L'] Supp=39
Item ID=['4710011401128L', '4710011405133L'] Supp=38
Item ID=['4710515537026L', '4713071811159L'] Supp=33
Item ID=['4710265849066L', '4710964103315L'] Supp=26
Item ID=['4710036000832L', '4710036000849L'] Supp=26
Item ID=['4710265849066L', '4710189851282L'] Supp=25
Item ID=['4710011401128L', '4710011409056L'] Supp=25
-----------------------------------------------------------------
---------------TOP 10 FREQUENT 3-ITEMSET-------------------------
Item ID=['4710011401128L', '4710011401135L', '4710011405133L'] Supp=17
Item ID=['4710011401128L', '4710011401135L', '4710011409056L'] Supp=17
Item ID=['4710265849066L', '4710189820851L', '4710189851282L'] Supp=15
Item ID=['4710011401128L', '4710011401135L', '4710011406123L'] Supp=15
Item ID=['4710011401128L', '4710011405133L', '4710011409056L'] Supp=15
Item ID=['4710011401128L', '4710011401135L', '4710011401142L'] Supp=12
Item ID=['4710011401128L', '4710011405133L', '4710011401142L'] Supp=11
Item ID=['4710011401135L', '4710011405133L', '4710011409056L'] Supp=11
Item ID=['4710011401135L', '4710011406123L', '4710011409056L'] Supp=10
-----------------------------------------------------------------
--------------------FURTHER IMPROVED 15000--------------------
---------------TOP 10 FREQUENT 1-ITEMSET-------------------------
Item ID=4710265849066L Supp=5.8
Item ID=4712425010712L Supp=3.51
Item ID=4719090900065L Supp=2.62
Item ID=4714981010038L Supp=2.05
Item ID=4710011401128L Supp=1.93
Item ID=20332433L Supp=1.87
Item ID=4710054380619L Supp=1.76
Item ID=4713985863121L Supp=1.75
Item ID=4711080010112L Supp=1.75
Item ID=4710085120628L Supp=1.63
-----------------------------------------------------------------
---------------TOP 10 FREQUENT 2-ITEMSET-------------------------
Item ID=['4710011401128L', '4710011401135L'] Supp=140
Item ID=['4710011401128L', '4710011405133L'] Supp=122
Item ID=['4710011401128L', '4710011409056L'] Supp=104
Item ID=['4710011401128L', '4710011406123L'] Supp=96
Item ID=['4710011401135L', '4710011405133L'] Supp=96
Item ID=['4710011401135L', '4710011409056L'] Supp=94
Item ID=['4710085120703L', '4710085120710L'] Supp=89
Item ID=['4710030346059L', '4710030346103L'] Supp=89
Item ID=['4710085120628L', '4710085172696L'] Supp=86
Item ID=['4710011405133L', '4710011406123L'] Supp=79
-----------------------------------------------------------------
---------------TOP 10 FREQUENT 3-ITEMSET-------------------------
Item ID=['4710011401128L', '4710011401135L', '4710011409056L'] Supp=72
Item ID=['4710011401128L', '4710011401135L', '4710011405133L'] Supp=71
Item ID=['4710011401128L', '4710011401135L', '4710011406123L'] Supp=57
Item ID=['4710011401128L', '4710011405133L', '4710011409056L'] Supp=54
Item ID=['4710011401128L', '4710011405133L', '4710011406123L'] Supp=51
Item ID=['4710011401135L', '4710011405133L', '4710011409056L'] Supp=51
Item ID=['4710011401135L', '4710011406123L', '4710011409056L'] Supp=46
Item ID=['4710030346059L', '4710030346103L', '4710030346110L'] Supp=46
Item ID=['4710011401128L', '4710011406123L', '4710011409056L'] Supp=45
Item ID=['4710030346059L', '4710030346103L', '4710030346097L'] Supp=44
-----------------------------------------------------------------
---------------TOP 10 FREQUENT 4-ITEMSET-------------------------
Item ID=['4710011401128L', '4710011401135L', '4710011405133L', '4710011409056L'] Supp=41
Item ID=['4710011401128L', '4710011401135L', '4710011406123L', '4710011409056L'] Supp=34
Item ID=['4710030346059L', '4710030346103L', '4710030346097L', '4710030346110L'] Supp=33
Item ID=['4710011401128L', '4710011401135L', '4710011405133L', '4710011406123L'] Supp=31
Item ID=['4710011401128L', '4710011401135L', '4710011405133L', '4710011401142L'] Supp=30
Item ID=['4710011401128L', '4710011401135L', '4710011409056L', '4710011401142L'] Supp=30
Item ID=['4710011401135L', '4710011405133L', '4710011406123L', '4710011409056L'] Supp=25
Item ID=['4710011401128L', '4710011405133L', '4710011406123L', '4710011409056L'] Supp=24
Item ID=['4710011401128L', '4710011405133L', '4710011409056L', '4710011401142L'] Supp=23
Item ID=['4710011401135L', '4710011405133L', '4710011409056L', '4710011401142L'] Supp=23
-----------------------------------------------------------------
--------------------FURTHER IMPROVED 29901--------------------
---------------TOP 10 FREQUENT 1-ITEMSET-------------------------
Item ID=4719090900065L Supp=5.49
Item ID=4710265849066L Supp=3.07
Item ID=4712425010712L Supp=2.83
Item ID=4714981010038L Supp=2.41
Item ID=4712425010255L Supp=2.07
Item ID=4710011401128L Supp=2.06
Item ID=4710018004605L Supp=2.03
Item ID=4710085120628L Supp=1.97
Item ID=4711080010112L Supp=1.9
Item ID=4710174053691L Supp=1.9
-----------------------------------------------------------------
---------------TOP 10 FREQUENT 2-ITEMSET-------------------------
Item ID=['4710011401128L', '4710011401135L'] Supp=286
Item ID=['4710011401128L', '4710011405133L'] Supp=278
Item ID=['4710018004605L', '4710018004704L'] Supp=248
Item ID=['4710011401128L', '4710011406123L'] Supp=236
Item ID=['4710085120628L', '4710085120093L'] Supp=232
Item ID=['4710085120628L', '4710085172696L'] Supp=231
Item ID=['4710011401128L', '4710011409056L'] Supp=226
Item ID=['4710011405133L', '4710011401135L'] Supp=197
Item ID=['4710085172696L', '4710085120093L'] Supp=185
Item ID=['4710011401135L', '4710011409056L'] Supp=180
-----------------------------------------------------------------
---------------TOP 10 FREQUENT 3-ITEMSET-------------------------
Item ID=['4710011401128L', '4710011405133L', '4710011401135L'] Supp=154
Item ID=['4710011401128L', '4710011401135L', '4710011409056L'] Supp=145
Item ID=['4710011401128L', '4710011405133L', '4710011409056L'] Supp=133
Item ID=['4710011401128L', '4710011406123L', '4710011401135L'] Supp=125
Item ID=['4710011401128L', '4710011405133L', '4710011406123L'] Supp=121
Item ID=['4710085120628L', '4710085172696L', '4710085120093L'] Supp=118
Item ID=['4710011405133L', '4710011401135L', '4710011409056L'] Supp=110
Item ID=['4710011401128L', '4710011406123L', '4710011409056L'] Supp=104
Item ID=['4710011406123L', '4710011401135L', '4710011409056L'] Supp=88
Item ID=['4710011405133L', '4710011406123L', '4710011401135L'] Supp=86
-----------------------------------------------------------------
---------------TOP 10 FREQUENT 4-ITEMSET-------------------------
Item ID=['4710011401128L', '4710011401135L', '4710011409056L', '4710011405133L'] Supp=93
Item ID=['4710011401128L', '4710011406123L', '4710011401135L', '4710011405133L'] Supp=70
Item ID=['4710011401128L', '4710011406123L', '4710011401135L', '4710011409056L'] Supp=69
Item ID=['4710011401128L', '4710011406123L', '4710011409056L', '4710011405133L'] Supp=64
Item ID=['4710011401128L', '4710011401135L', '4710011409056L', '4710011401142L'] Supp=58
Item ID=['4710011406123L', '4710011401135L', '4710011409056L', '4710011405133L'] Supp=54
Item ID=['4710011401128L', '4710011401135L', '4710011405133L', '4710011401142L'] Supp=53
Item ID=['4710011401128L', '4710011409056L', '4710011405133L', '4710011401142L'] Supp=46
Item ID=['4710085120628L', '4710085172696L', '4710085120093L', '4710085172702L'] Supp=45
Item ID=['4710011401128L', '4710011406123L', '4710011401135L', '4710011401142L'] Supp=44
-----------------------------------------------------------------
---------------TOP 10 FREQUENT 5-ITEMSET-------------------------
Item ID=['4710011401128L', '4710011406123L', '4710011401135L', '4710011409056L', '4710011405133L'] Supp=45
Item ID=['4710011401128L', '4710011401135L', '4710011409056L', '4710011405133L', '4710011401142L'] Supp=39
Item ID=['4710011401128L', '4710011406123L', '4710011401135L', '4710011409056L', '4710011401142L'] Supp=31
-----------------------------------------------------------------
--------------------FURTHER IMPROVED 60952--------------------
---------------TOP 10 FREQUENT 1-ITEMSET-------------------------
Item ID=4714981010038L Supp=7.44
Item ID=4719090900065L Supp=3.1
Item ID=4710265849066L Supp=2.91
Item ID=4711271000014L Supp=1.99
Item ID=4710036003581L Supp=1.86
Item ID=4710114128038L Supp=1.86
Item ID=4711080010112L Supp=1.81
Item ID=4712425010712L Supp=1.67
Item ID=4710088410139L Supp=1.62
Item ID=4713985863121L Supp=1.51
-----------------------------------------------------------------
---------------TOP 10 FREQUENT 2-ITEMSET-------------------------
Item ID=['4710011401128L', '4710011401135L'] Supp=390
Item ID=['4714981010038L', '4711271000014L'] Supp=385
Item ID=['4710011401128L', '4710011405133L'] Supp=375
Item ID=['4710011401128L', '4710011406123L'] Supp=343
Item ID=['4710011401128L', '4710011409056L'] Supp=300
Item ID=['4711856000125L', '4711856000088L'] Supp=296
Item ID=['4710085120628L', '4710085172696L'] Supp=289
Item ID=['4710018004605L', '4710018004704L'] Supp=285
Item ID=['4714981010038L', '4710036003581L'] Supp=279
Item ID=['4710085120628L', '4710085120093L'] Supp=279
-----------------------------------------------------------------
---------------TOP 10 FREQUENT 3-ITEMSET-------------------------
Item ID=['4710011401128L', '4710011405133L', '4710011401135L'] Supp=204
Item ID=['4710011401128L', '4710011401135L', '4710011409056L'] Supp=191
Item ID=['4710011401128L', '4710011406123L', '4710011401135L'] Supp=174
Item ID=['4710011401128L', '4710011406123L', '4710011405133L'] Supp=171
Item ID=['4710011401128L', '4710011405133L', '4710011409056L'] Supp=165
Item ID=['4710011401128L', '4710011406123L', '4710011409056L'] Supp=144
Item ID=['4710085120628L', '4710085172696L', '4710085120093L'] Supp=141
Item ID=['4710011405133L', '4710011401135L', '4710011409056L'] Supp=138
Item ID=['4710011406123L', '4710011405133L', '4710011401135L'] Supp=121
Item ID=['4710011406123L', '4710011401135L', '4710011409056L'] Supp=119
-----------------------------------------------------------------
---------------TOP 10 FREQUENT 4-ITEMSET-------------------------
Item ID=['4710011401128L', '4710011405133L', '4710011401135L', '4710011409056L'] Supp=118
Item ID=['4710011401128L', '4710011406123L', '4710011405133L', '4710011401135L'] Supp=101
Item ID=['4710011401128L', '4710011406123L', '4710011401135L', '4710011409056L'] Supp=98
Item ID=['4710011401128L', '4710011406123L', '4710011405133L', '4710011409056L'] Supp=88
Item ID=['4710011406123L', '4710011405133L', '4710011401135L', '4710011409056L'] Supp=77
Item ID=['4711856000125L', '4711856020208L', '4711856000088L', '4711856020215L'] Supp=55
Item ID=['37000329206L', '37000445111L', '37000442127L', '37000337270L'] Supp=20
-----------------------------------------------------------------
---------------TOP 10 FREQUENT 5-ITEMSET-------------------------
Item ID=['4710011401128L', '4710011406123L', '4710011405133L', '4710011401135L', '4710011409056L'] Supp=67
-----------------------------------------------------------------
--------------------FURTHER IMPROVED 119578--------------------
---------------CLASSIC NALINAKSH APRIORI-------------------------
5000 transactions takes 45.479000
15000 transactions takes 165.235000
29901 transactions takes 531.587000
60952 transactions takes 1784.899000
-----------------------------------------------------------------
---------------CLASSIC RODI APRIORI-------------------------
5000 transactions takes 50.532000
15000 transactions takes 386.294000
-----------------------------------------------------------------
---------------IMPROVED APRIORI-------------------------
5000 transactions takes 6.301000
15000 transactions takes 34.969000
29901 transactions takes 132.699000
60952 transactions takes 567.678000
-----------------------------------------------------------------
---------------IMPROVED APRIORI ADAPTATION-------------------------
5000 transactions takes 6.485000
15000 transactions takes 45.020000
29901 transactions takes 372.128000
60952 transactions takes 1119.891000
-----------------------------------------------------------------

Process finished with exit code 0
